[{"userid":1,"IBAN":"PT53 3021 6330 5284 5476 9323 2","balance":340202.38},
{"userid":4,"IBAN":"RS76 5669 1039 7478 0886 14","balance":144808.16},
{"userid":1,"IBAN":"LV51 RLXG A7XV IY40 6GSB D","balance":921868.42},
{"userid":11,"IBAN":"PK11 VDEP MFRM DFJF YBQP JFM9","balance":456149.25},
{"userid":8,"IBAN":"LV34 EZOD 3ZDG ELQQ N6RO I","balance":254362.0},
{"userid":18,"IBAN":"AZ49 CBMP U9EY C6L5 R8A2 DHBI GI9I","balance":907811.77},
{"userid":17,"IBAN":"FR05 0352 3241 43ZY TC6Z 7MTX 212","balance":556379.22},
{"userid":6,"IBAN":"BE41 2139 8708 8951","balance":654340.0},
{"userid":20,"IBAN":"LI14 0594 7ZIQ XYV6 ZXLI V","balance":620473.75},
{"userid":4,"IBAN":"LV51 SJQK FJGM HZ1J 0L3X Z","balance":317522.79},
{"userid":13,"IBAN":"FR50 4048 3711 08FG MKYW 2L7N L80","balance":32618.6},
{"userid":15,"IBAN":"RS38 4596 0788 8423 4320 02","balance":696797.82},
{"userid":15,"IBAN":"BR98 6892 7378 1455 0107 7647 824U T","balance":631341.0},
{"userid":18,"IBAN":"GL77 0479 2085 5564 07","balance":971422.2},
{"userid":13,"IBAN":"FR82 7169 7101 50SC S92N RLRG F41","balance":114742.87},
{"userid":1,"IBAN":"MR76 6709 3393 6422 2367 8816 897","balance":112043.62},
{"userid":13,"IBAN":"DK64 3004 3861 8249 14","balance":954335.88},
{"userid":25,"IBAN":"PL75 6634 9125 7066 4291 6632 1837","balance":109221.1},
{"userid":7,"IBAN":"FR21 1545 3879 487Q XYPL N0BB I71","balance":197361.73},
{"userid":23,"IBAN":"DO63 PIEG 4783 5321 4383 2151 7498","balance":697997.69},
{"userid":25,"IBAN":"ES39 8304 5384 1039 8122 5995","balance":957758.56},
{"userid":14,"IBAN":"FR92 6163 4235 48YE XZPW LFFH 739","balance":283603.87},
{"userid":9,"IBAN":"ES21 9724 0627 7765 8229 3986","balance":262220.67},
{"userid":17,"IBAN":"ME78 1464 2476 0310 6851 31","balance":130401.0},
{"userid":15,"IBAN":"BG08 FFTK 9707 64BV YCTU YO","balance":577935.32},
{"userid":15,"IBAN":"FR54 7996 3753 89AF 8K2X NZXF Y77","balance":785502.19},
{"userid":15,"IBAN":"CY17 2711 1001 PLFW XAL8 I451 XF2H","balance":170684.49},
{"userid":26,"IBAN":"MT43 FKZP 4480 4PMX NCGP RYPL TZAE 9P9","balance":214480.77},
{"userid":12,"IBAN":"GI88 ZRCM VUD3 QFWF QRYQ IZL","balance":331744.03},
{"userid":14,"IBAN":"GE63 PZ10 2925 4269 4690 29","balance":662792.0},
{"userid":10,"IBAN":"ME74 3098 0541 3621 3114 67","balance":231603.34},
{"userid":21,"IBAN":"LT37 2496 9770 4236 9411","balance":316326.19},
{"userid":8,"IBAN":"GL71 4012 5285 8719 17","balance":527803.78},
{"userid":2,"IBAN":"AZ82 CAIO 42I3 LRLJ Q306 INFI SBE0","balance":733614.24},
{"userid":6,"IBAN":"RO42 VEMA OLUE HW0N BH9C LFKC","balance":631407.06},
{"userid":22,"IBAN":"NL07 SFVN 1848 0123 87","balance":881434.02},
{"userid":1,"IBAN":"MU61 TXYU 3811 6994 6143 2509 882K OF","balance":776209.0},
{"userid":9,"IBAN":"SA31 660T PR3R GFBM U6HF L7QX","balance":590119.65},
{"userid":10,"IBAN":"FR06 6785 3926 24HN 1PEK MZUD B33","balance":772210.41},
{"userid":11,"IBAN":"KZ09 349L EUHU XAB0 CIU1","balance":203382.85},
{"userid":25,"IBAN":"LI54 0469 1YK4 QLH0 I6NJ K","balance":260852.04},
{"userid":27,"IBAN":"SA15 62ZZ LQQZ JDRA WWR7 HXDV","balance":696414.92},
{"userid":24,"IBAN":"GI40 WROV RT5H FDGP GYZD MLG","balance":274725.7},
{"userid":18,"IBAN":"BR18 7401 6497 3105 0797 3481 729C B","balance":225363.08},
{"userid":24,"IBAN":"CZ54 6857 4266 3093 6684 9881","balance":299574.29},
{"userid":2,"IBAN":"TN86 5656 2690 3899 4689 9243","balance":40014.14},
{"userid":7,"IBAN":"FR23 9350 8834 23OZ NW1D PVRZ 383","balance":40506.57},
{"userid":7,"IBAN":"GI89 JJYY A395 LPMN YA6M XIK","balance":864702.11},
{"userid":12,"IBAN":"RS53 0343 9810 7016 0327 65","balance":395271.41},
{"userid":27,"IBAN":"FR36 7886 8524 72IO W66T JIKA L52","balance":220684.47},
{"userid":16,"IBAN":"AE48 6277 4002 7283 9034 795","balance":191463.5},
{"userid":3,"IBAN":"PS15 ZKFV WUMI YZ8Z P1H6 Q04S L2YI L","balance":276182.98},
{"userid":18,"IBAN":"FR69 1985 1456 730T AZ8W PM6U 114","balance":647063.0},
{"userid":12,"IBAN":"DO69 E6BN 0104 8270 8651 1657 2730","balance":172532.65},
{"userid":7,"IBAN":"AE06 0601 3550 2368 9993 661","balance":193280.9},
{"userid":22,"IBAN":"TN89 9817 5862 5756 4783 0840","balance":514342.15},
{"userid":6,"IBAN":"LI07 2762 9VFV CE1V ZUSK P","balance":37174.92},
{"userid":25,"IBAN":"MC89 5155 2150 58CL 7NBH 3PFY L82","balance":209181.95},
{"userid":25,"IBAN":"AL10 7248 9123 XACU LP7G HWJO ANAW","balance":342975.73},
{"userid":25,"IBAN":"GB85 YEJS 9003 9745 4251 76","balance":267445.81},
{"userid":9,"IBAN":"PT68 2203 3160 0850 7586 1459 7","balance":236310.07},
{"userid":13,"IBAN":"CY92 4522 7468 DXNH S25T 6BWA J5N4","balance":581116.08},
{"userid":20,"IBAN":"GE19 VR17 4230 0723 3052 69","balance":17683.86},
{"userid":1,"IBAN":"SK75 1471 8321 3113 1380 0234","balance":549196.62},
{"userid":8,"IBAN":"FR79 9565 5103 92SP KQEH OG1F H28","balance":775466.44},
{"userid":19,"IBAN":"MK90 3777 J3RA 5QNA D89","balance":526517.0},
{"userid":13,"IBAN":"MK11 090G ZTVO QJ9T J16","balance":776690.16},
{"userid":18,"IBAN":"LV66 SQOU 5SME GXHD ABVQ E","balance":681275.98},
{"userid":3,"IBAN":"DK22 9587 9850 7234 83","balance":911597.1},
{"userid":19,"IBAN":"MR65 2034 4621 1493 3748 8363 299","balance":265594.69},
{"userid":6,"IBAN":"PL44 3563 0158 7609 6956 4554 8908","balance":935360.3},
{"userid":24,"IBAN":"TR49 8811 4IN5 1TCC QYHM CVO5 V8","balance":221627.72},
{"userid":12,"IBAN":"VG42 LDJP 8312 9873 0166 3075","balance":952882.65},
{"userid":4,"IBAN":"SA02 86LE RLNI A2WY CG8W VW8X","balance":145446.83},
{"userid":13,"IBAN":"DO06 SV3P 9421 6526 2218 3682 5302","balance":901826.76},
{"userid":29,"IBAN":"CZ60 1544 0880 5104 1596 7551","balance":499535.12},
{"userid":22,"IBAN":"SI13 2093 1743 2599 935","balance":530663.16},
{"userid":17,"IBAN":"AT75 7026 9444 7076 5724","balance":934075.39},
{"userid":21,"IBAN":"GI36 XTNW HWJH L050 JSF8 NNP","balance":14003.77},
{"userid":27,"IBAN":"PL91 6766 6766 1084 1592 5598 1231","balance":635606.99},
{"userid":25,"IBAN":"FR47 6388 3427 70DT JJZO REMX 766","balance":706452.15},
{"userid":19,"IBAN":"BR47 5456 5831 6975 1757 3912 685Z H","balance":477765.12},
{"userid":3,"IBAN":"MC14 4579 2403 549X HO5X 93UO X19","balance":935275.0},
{"userid":30,"IBAN":"KZ67 285H A2SV O8SN KNZ7","balance":799608.78},
{"userid":28,"IBAN":"FR97 3926 5790 68JV 1UP3 NTFX S26","balance":446367.04},
{"userid":29,"IBAN":"GL49 8262 8258 5441 19","balance":630975.11},
{"userid":28,"IBAN":"KZ33 417I YPYS KEIP GEAE","balance":670990.13},
{"userid":26,"IBAN":"GL15 3553 9962 3416 58","balance":445165.16},
{"userid":18,"IBAN":"PS83 KTXA 1DHD IPJG 3DTK QIVV PBAU A","balance":465896.36},
{"userid":27,"IBAN":"FR39 4016 2888 56C2 WSKQ TBGV 921","balance":399779.52},
{"userid":29,"IBAN":"IT75 N061 0642 637H CLCV HNQ5 JRB","balance":374337.34},
{"userid":13,"IBAN":"CY82 6246 4292 OR6L JRFA IGWJ SZIF","balance":557027.01},
{"userid":2,"IBAN":"HR49 1213 9423 2572 5527 0","balance":823991.31},
{"userid":18,"IBAN":"FR31 5232 7547 42DH WMJL R4US J60","balance":261403.83},
{"userid":21,"IBAN":"PS06 HDKN DRYO IXPL DXAO SQCY UF4M A","balance":674542.92},
{"userid":23,"IBAN":"LV27 ZMAO FM1C PUWB VTZN Z","balance":77986.46},
{"userid":2,"IBAN":"FI48 2808 9784 6684 61","balance":253935.96},
{"userid":10,"IBAN":"FR96 2849 6203 59AJ CCFV F1ZT 495","balance":231390.59},
{"userid":18,"IBAN":"MU44 DYUY 9846 2534 2195 8158 395E WR","balance":232919.17},
{"userid":29,"IBAN":"FI21 5506 0732 9092 86","balance":825342.73}]
